Final Capstone Project/Vending Machine Controller IP Verification (All Code Files)/vending_wave.vcd
$date
Tue Jan 13 10:25:38 2026
$end
$version
Riviera-PRO Version 2023.04.112.8911
$end
$timescale
1 ns
$end

$scope module top $end
$var reg 1 ! clk $end
$var reg 1 " pclk $end
$var parameter 32 # MAX_ITEMS [31:0] $end
$var parameter 32 $ MAX_NOTE_VAL [31:0] $end

$scope module checker_vif $end
$var reg 1 % expected_dispense $end
$var integer 32 & expected_item $end
$var integer 32 ' expected_qty $end
$var integer 32 ( expected_change $end
$var reg 1 ) dut_dispense_valid $end
$var integer 32 * dut_item $end
$var integer 32 + dut_qty $end
$var integer 32 , dut_change $end
$var reg 1 - resetn $end
$upscope $end


$scope module ctrl_vif $end
$var reg 1 . rstn $end
$var reg 1 / cfg_mode $end
$upscope $end


$scope module cfg_vif $end
$var reg 16 0 paddr [15:0] $end
$var reg 1 1 psel $end
$var reg 1 2 pwrite $end
$var reg 32 3 pwdata [31:0] $end
$var reg 32 4 prdata [31:0] $end
$var reg 1 5 pready $end
$var reg 1 6 prstn $end
$upscope $end


$scope module currency_vif $end
$var reg 1 7 currency_valid $end
$var reg 8 8 currency_value [7:0] $end
$upscope $end


$scope module item_vif $end
$var reg 1 9 item_select_valid $end
$var reg 5 : item_select [4:0] $end
$var reg 8 ; no_of_items [7:0] $end
$var parameter 32 < MAX_ITEMS [31:0] $end
$upscope $end


$scope module dispense_vif $end
$var reg 1 = item_dispense_valid $end
$var reg 5 > item_dispense [4:0] $end
$var reg 16 ? currency_change [15:0] $end
$var reg 8 @ no_of_items_dispensed [7:0] $end
$var parameter 32 A MAX_ITEMS [31:0] $end
$upscope $end


$scope module dut $end
$var wire 1 B clk $end
$var wire 1 C rstn $end
$var wire 1 D cfg_mode $end
$var wire 1 E pclk $end
$var wire 1 F prstn $end
$var wire 16 G paddr [15:0] $end
$var wire 1 H psel $end
$var wire 1 I pwrite $end
$var wire 32 J pwdata [31:0] $end
$var wire 32 K prdata [31:0] $end
$var wire 1 L pready $end
$var wire 1 M currency_valid $end
$var wire 8 N currency_value [7:0] $end
$var wire 1 O item_select_valid $end
$var wire 8 P no_of_items [7:0] $end
$var wire 5 Q item_select [4:0] $end
$var wire 1 R item_dispense_valid $end
$var wire 5 S item_dispense [4:0] $end
$var wire 8 T no_of_items_dispensed [7:0] $end
$var wire 16 U currency_change [15:0] $end
$var reg 5 V current_item_code [4:0] $end
$var reg 8 W current_item_count [7:0] $end
$var reg 32 X current_item_cfg [31:0] $end
$var reg 1 Y o_valid_r $end
$var reg 5 Z out_item_r [4:0] $end
$var reg 8 [ out_item_count_r [7:0] $end
$var reg 16 \ count_notes [15:0] $end
$var reg 16 ] note_change_r [15:0] $end
$var reg 1 ^ item_vld_posedge $end
$var parameter 32 _ MAX_ITEMS [31:0] $end
$var parameter 32 ` MAX_NOTE_VAL [31:0] $end

$scope module item_posedge $end
$var wire 1 B clk $end
$var wire 1 a rstn $end
$var wire 1 b sig $end
$var wire 1 c posedge_sig $end
$var reg 1 d sig_r $end
$upscope $end


$scope module u_cfg_ctrl $end
$var wire 1 E pclk $end
$var wire 16 e paddr [15:0] $end
$var wire 1 f prstn $end
$var wire 32 g pwdata [31:0] $end
$var wire 32 K prdata [31:0] $end
$var wire 1 h pwrite $end
$var wire 1 i psel $end
$var wire 5 j get_me_item_cfg [4:0] $end
$var wire 32 k current_item_cfg [31:0] $end
$var wire 1 l update_vld $end
$var wire 5 m update_item_no [4:0] $end
$var wire 8 n update_item_count [7:0] $end
$var wire 16 o addr_u [15:0] $end
$var wire 5 p addr_index [4:0] $end
$var wire 1 q addr_is_item $end
$var reg 32 r prdata_r [31:0] $end
$var reg 32 s current_item_cfg_r [31:0] $end
$var reg 32 t vending_machine_cfg [31:0] $end
$var parameter 32 u MAX_ITEMS [31:0] $end
$var parameter 16 v ITEM_BASE [15:0] $end
$upscope $end

$upscope $end

$upscope $end


$scope module uvm_pkg $end
$var integer 32 w UVM_UNBOUNDED_CONNECTIONS $end
$var reg 1 x uvm_start_uvm_declarations $end
$var integer 32 y uvm_global_random_seed $end
$var parameter 32 z UVM_HDL_MAX_WIDTH [31:0] $end
$var parameter 32 { UVM_STREAMBITS [31:0] $end
$var parameter 32 | UVM_RADIX [31:0] $end
$var parameter 32 } UVM_MACRO_NUMFLAGS [31:0] $end
$var parameter 32 ~ UVM_DEFAULT [31:0] $end
$var parameter 32 !! UVM_ALL_ON [31:0] $end
$var parameter 32 "! UVM_FLAGS_ON [31:0] $end
$var parameter 32 #! UVM_FLAGS_OFF [31:0] $end
$var parameter 32 $! UVM_COPY [31:0] $end
$var parameter 32 %! UVM_NOCOPY [31:0] $end
$var parameter 32 &! UVM_COMPARE [31:0] $end
$var parameter 32 '! UVM_NOCOMPARE [31:0] $end
$var parameter 32 (! UVM_PRINT [31:0] $end
$var parameter 32 )! UVM_NOPRINT [31:0] $end
$var parameter 32 *! UVM_RECORD [31:0] $end
$var parameter 32 +! UVM_NORECORD [31:0] $end
$var parameter 32 ,! UVM_PACK [31:0] $end
$var parameter 32 -! UVM_NOPACK [31:0] $end
$var parameter 32 .! UVM_PHYSICAL [31:0] $end
$var parameter 32 /! UVM_ABSTRACT [31:0] $end
$var parameter 32 0! UVM_READONLY [31:0] $end
$var parameter 32 1! UVM_NODEFPRINT [31:0] $end
$var parameter 32 2! UVM_MACRO_EXTRAS [31:0] $end
$var parameter 32 3! UVM_FLAGS [31:0] $end
$var parameter 32 4! UVM_UNPACK [31:0] $end
$var parameter 32 5! UVM_CHECK_FIELDS [31:0] $end
$var parameter 32 6! UVM_END_DATA_EXTRA [31:0] $end
$var parameter 32 7! UVM_START_FUNCS [31:0] $end
$var parameter 32 8! UVM_SET [31:0] $end
$var parameter 32 9! UVM_SETINT [31:0] $end
$var parameter 32 :! UVM_SETOBJ [31:0] $end
$var parameter 32 ;! UVM_SETSTR [31:0] $end
$var parameter 32 <! UVM_END_FUNCS [31:0] $end
$var parameter 32 =! UVM_STR_CRC_POLYNOMIAL [31:0] $end
$var parameter 32 >! UVM_STDOUT [31:0] $end
$var parameter 32 ?! UVM_LOG_UVM_RM_RECORD [31:0] $end
$var parameter 32 @! UVM_LINE_WIDTH [31:0] $end
$var parameter 32 A! UVM_NUM_LINES [31:0] $end
$var parameter 32 B! UVM_SMALL_STRING [31:0] $end
$var parameter 32 C! UVM_LARGE_STRING [31:0] $end

$scope function uvm_hdl_check_path $end
$var integer 32 D! uvm_hdl_check_path $end
$upscope $end


$scope function uvm_hdl_deposit $end
$var reg 1024 E! value [1023:0] $end
$var integer 32 F! uvm_hdl_deposit $end
$upscope $end


$scope function uvm_hdl_force $end
$var reg 1024 G! value [1023:0] $end
$var integer 32 H! uvm_hdl_force $end
$upscope $end


$scope task uvm_hdl_force_time $end
$var reg 1024 I! value [1023:0] $end
$var time 64 J! force_time $end
$upscope $end


$scope function uvm_hdl_release_and_read $end
$var reg 1024 K! value [1023:0] $end
$var integer 32 L! uvm_hdl_release_and_read $end
$upscope $end


$scope function uvm_hdl_release $end
$var integer 32 M! uvm_hdl_release $end
$upscope $end


$scope function uvm_hdl_read $end
$var reg 1024 N! value [1023:0] $end
$var integer 32 O! uvm_hdl_read $end
$upscope $end


$scope function uvm_dpi_get_next_arg_c $end
$var integer 32 P! init $end
$upscope $end


$scope function uvm_dpi_get_tool_name_c $end
$upscope $end


$scope function uvm_dpi_get_tool_version_c $end
$upscope $end


$scope function uvm_dpi_get_next_arg $end
$var integer 32 Q! init $end
$upscope $end


$scope function uvm_dpi_get_tool_name $end
$upscope $end


$scope function uvm_dpi_get_tool_version $end
$upscope $end


$scope function uvm_dpi_regcomp $end
$upscope $end


$scope function uvm_dpi_regexec $end
$var integer 32 R! uvm_dpi_regexec $end
$upscope $end


$scope function uvm_dpi_regfree $end
$upscope $end


$scope function uvm_re_match $end
$var integer 32 S! uvm_re_match $end
$upscope $end


$scope function uvm_dump_re_cache $end
$upscope $end


$scope function uvm_glob_to_re $end
$upscope $end


$scope function uvm_revision_string $end
$upscope $end


$scope function uvm_radix_to_string $end
$var integer 32 T! radix $end
$upscope $end


$scope function uvm_instance_scope $end
$var reg 8 U! c [7:0] $end
$var integer 32 V! pos $end

$scope begin 1unnblk $end
$var integer 32 W! dot_pos $end
$var integer 32 X! slash_cnt $end
$var integer 32 Y! slash_pos $end
$upscope $end

$upscope $end


$scope function uvm_oneway_hash $end
$var integer 32 Z! seed $end
$var integer 32 [! uvm_oneway_hash $end
$var reg 1 \! msb $end
$var reg 8 ]! current_byte [7:0] $end
$var reg 32 ^! crc1 [31:0] $end
$upscope $end


$scope function uvm_create_random_seed $end
$var integer 32 _! uvm_create_random_seed $end
$upscope $end


$scope function uvm_object_value_str $end
$upscope $end


$scope function uvm_leaf_scope $end
$var reg 8 `! scope_separator [7:0] $end
$var reg 8 a! bracket_match [7:0] $end
$var integer 32 b! pos $end
$var integer 32 c! bmatches $end
$upscope $end


$scope function get_radix_string_global $end
$var integer 32 d! radix $end
$upscope $end


$scope function uvm_bitstream_to_string $end
$var reg 4096 e! value [4095:0] $end
$var integer 32 f! size $end
$var integer 32 g! radix $end

$scope begin 24unnblk $end
$var reg 4096 h! _t [4095:0] $end
$upscope $end

$upscope $end


$scope function uvm_integral_to_string $end
$var reg 64 i! value [63:0] $end
$var integer 32 j! size $end
$var integer 32 k! radix $end

$scope begin 26unnblk $end
$var reg 64 l! _t [63:0] $end
$upscope $end

$upscope $end


$scope function uvm_vector_to_string $end
$var reg 4096 m! value [4095:0] $end
$var integer 32 n! size $end
$var integer 32 o! radix $end
$upscope $end


$scope function uvm_get_array_index_int $end
$var reg 1 p! is_wildcard $end
$var integer 32 q! uvm_get_array_index_int $end
$var integer 32 r! i $end
$upscope $end


$scope function uvm_get_array_index_string $end
$var reg 1 s! is_wildcard $end
$var integer 32 t! i $end
$upscope $end


$scope function uvm_is_array $end
$var reg 1 u! uvm_is_array $end
$upscope $end


$scope function uvm_has_wildcard $end
$upscope $end


$scope function m_uvm_string_queue_join $end
$upscope $end


$scope task run_test $end
$upscope $end


$scope function global_stop_request $end
$upscope $end


$scope function set_global_timeout $end
$var time 64 v! timeout $end
$var reg 1 w! overridable $end
$upscope $end


$scope function set_global_stop_timeout $end
$var time 64 x! timeout $end
$upscope $end


$scope function uvm_get_report_object $end
$upscope $end


$scope function uvm_report_enabled $end
$var integer 32 y! verbosity $end
$var reg 2 z! severity $end
$var integer 32 {! uvm_report_enabled $end
$upscope $end


$scope function uvm_report $end
$var reg 2 |! severity $end
$var integer 32 }! verbosity $end
$var integer 32 ~! line $end
$var reg 1 !" report_enabled_checked $end
$upscope $end


$scope function m__uvm_report_dpi $end
$var integer 32 "" severity $end
$var integer 32 #" verbosity $end
$var integer 32 $" line $end
$upscope $end


$scope function uvm_report_info $end
$var integer 32 %" verbosity $end
$var integer 32 &" line $end
$var reg 1 '" report_enabled_checked $end
$upscope $end


$scope function uvm_report_warning $end
$var integer 32 (" verbosity $end
$var integer 32 )" line $end
$var reg 1 *" report_enabled_checked $end
$upscope $end


$scope function uvm_report_error $end
$var integer 32 +" verbosity $end
$var integer 32 ," line $end
$var reg 1 -" report_enabled_checked $end
$upscope $end


$scope function uvm_report_fatal $end
$var integer 32 ." verbosity $end
$var integer 32 /" line $end
$var reg 1 0" report_enabled_checked $end
$upscope $end


$scope function uvm_process_report_message $end
$upscope $end


$scope function uvm_string_to_severity $end
$var reg 2 1" sev $end
$var reg 1 2" uvm_string_to_severity $end
$upscope $end


$scope function uvm_string_to_action $end
$upscope $end


$scope function set_config_int $end
$var reg 4096 3" value [4095:0] $end
$upscope $end


$scope function set_config_object $end
$var reg 1 4" clone $end
$upscope $end


$scope function set_config_string $end
$upscope $end


$scope function uvm_is_match $end
$var reg 1 5" uvm_is_match $end
$upscope $end


$scope function uvm_string_to_bits $end
$var reg 115200 6" uvm_string_to_bits [115199:0] $end
$upscope $end


$scope function uvm_bits_to_string $end
$var reg 115200 7" str [115199:0] $end
$upscope $end


$scope task uvm_wait_for_nba_region $end
$var integer 32 8" nba $end
$var integer 32 9" next_nba $end
$upscope $end


$scope function uvm_split_string $end
$upscope $end


$scope function uvm_hdl_concat2string $end
$upscope $end

$upscope $end


$scope module std $end

$scope function randomize $end
$var reg 1 :" randomize $end
$upscope $end

$upscope $end


$scope module UnitScopePackage_1 $end
$var parameter 32 ;" MAX_ITEMS [31:0] $end
$upscope $end

$enddefinitions $end
$dumpvars
0!
0"
b100000 #
b1100100 $
0%
b0 &
b0 '
b0 (
0)
b0 *
b0 +
b0 ,
1-
0.
1/
b0 0
01
02
b0 3
b0 4
15
06
07
b0 8
09
b0 :
b0 ;
b100000 <
0=
b0 >
b0 ?
b0 @
b100000 A
0B
0C
1D
0E
0F
b0 G
0H
0I
b0 J
b0 K
1L
0M
b0 N
0O
b0 P
b0 Q
0R
b0 S
b0 T
b0 U
b0 V
b1 W
b0 X
0Y
b0 Z
b0 [
b0 \
b0 ]
0^
b100000 _
b1100100 `
0a
0b
0c
0d
b0 e
0f
b0 g
0h
0i
b0 j
b0 k
0l
b0 m
b0 n
b0 o
b11111 p
0q
b0 r
b0 s
b0 t
b100000 u
b100 v
b11111111111111111111111111111111 w
1x
b1000011111110111011111100011111 y
b10000000000 z
b1000000000000 {
b1111000000000000000000000000 |
b10001 }
b10101010101 ~
b101010101 !!
b101010101 "!
b0 #!
b1 $!
b10 %!
b100 &!
b1000 '!
b10000 (!
b100000 )!
b1000000 *!
b10000000 +!
b100000000 ,!
b1000000000 -!
b10000000000000 .!
b100000000000000 /!
b1000000000000000 0!
b10000000000000000 1!
b100000000000000000 2!
b100000000000000001 3!
b100000000000000010 4!
b100000000000000011 5!
b100000000000000100 6!
b100000000000000101 7!
b100000000000000110 8!
b100000000000000110 9!
b100000000000000111 :!
b100000000000001000 ;!
b100000000000001000 <!
b100110000010001110110110110 =!
b1 >!
b1000010 ?!
b1111000 @!
b1111000 A!
b1110111111 B!
b11100000111111111 C!
b0 D!
bx E!
b0 F!
bx G!
b0 H!
bx I!
bx J!
bx K!
b0 L!
b0 M!
bx N!
b0 O!
b0 P!
b0 Q!
b0 R!
b0 S!
b0 T!
b101110 U!
b11011 V!
b10001 W!
b11 X!
b11001 Y!
b1000011111110111011111100011111 Z!
b1011001110010011010010000000001 [!
0\!
b110000 ]!
b11101000110110011001011101010 ^!
b110111111011111101101100011010 _!
b101110 `!
b0 a!
b11101 b!
b11111111111111111111111111111111 c!
b0 d!
bx e!
b0 f!
b0 g!
bx h!
b1 i!
b100000 j!
b10000000000000000000000000 k!
bx l!
bx m!
b0 n!
b0 o!
0p!
b0 q!
b0 r!
0s!
b0 t!
0u!
bx v!
0w!
bx x!
b111110100 y!
b0 z!
b0 {!
b0 |!
b0 }!
b0 ~!
0!"
b0 ""
b0 #"
b0 $"
b0 %"
b0 &"
0'"
b0 ("
b0 )"
0*"
b0 +"
b0 ,"
0-"
b0 ."
b0 /"
00"
b0 1"
02"
bx 3"
04"
05"
bx 6"
bx 7"
b100100 8"
b100100 9"
0:"
b100000 ;"
$end
#5
1!
1B
b100110 9"
b100110 8"
#10
1"
0!
0B
1E
b1010 3
12
11
1H
1I
b1010 J
b1010 g
1h
1i
#15
1!
1B
#20
1.
0"
0!
16
0B
0E
1F
1f
1C
1a
#25
1!
1B
#30
1"
0!
0B
1E
b100111 9"
b111111001010011010011110101010 [!
b1110100000101111101001000000100 ^!
b110001 ]!
0\!
b111111001010011010011110101010 _!
b1010 t
b0 3
02
01
b100111 8"
0H
0I
b0 J
b0 g
0h
0i
#35
1!
1B
#40
0"
0!
0B
0E
#45
1!
1B
#50
1"
0!
0B
1E
b1 0
b10000000000001011 3
12
11
1H
1I
b10000000000001011 J
b10000000000001011 g
b1 G
b1 e
b1 o
1h
1i
#55
1!
1B
#60
0"
0!
0B
0E
#65
1!
1B
#70
1"
0!
0B
1E
b101000 9"
b10100110101110010010000111110101 [!
b101001100111010100001010011101 ^!
b110010 ]!
1\!
b10100110101110010010000111110101 _!
b0 0
b0 3
02
01
b101000 8"
0H
0I
b0 J
b0 g
b0 G
b0 e
b0 o
0h
0i
#75
1!
1B
#80
0"
0!
0B
0E
#85
1!
1B
#90
1"
0!
0B
1E
b10 0
b100000000000001100 3
12
11
1H
1I
b100000000000001100 J
b100000000000001100 g
b10 G
b10 e
b10 o
1h
1i
#95
1!
1B
#100
0"
0!
0B
0E
#105
1!
1B
#110
1"
0!
0B
1E
b101001 9"
b11010000010110010010110111011110 [!
b1000000100100011010001001110011 ^!
b110011 ]!
1\!
b11010000010110010010110111011110 _!
b0 0
b0 3
02
01
b101001 8"
0H
0I
b0 J
b0 g
b0 G
b0 e
b0 o
0h
0i
#115
1!
1B
#120
0"
0!
0B
0E
#125
1!
1B
#130
1"
0!
0B
1E
b11 0
b110000000000001101 3
12
11
1H
1I
b110000000000001101 J
b110000000000001101 g
b11 G
b11 e
b11 o
1h
1i
#135
1!
1B
#140
0"
0!
0B
0E
#145
1!
1B
#150
1"
0!
0B
1E
b101010 9"
b111001011101111000011010011001 [!
b10000101001110001000010000001010 ^!
b110100 ]!
0\!
b111001011101111000011010011001 _!
b0 0
b0 3
02
01
b101010 8"
0H
0I
b0 J
b0 g
b0 G
b0 e
b0 o
0h
0i
#155
1!
1B
#160
0"
0!
0B
0E
#165
1!
1B
#170
1"
0!
0B
1E
b100 0
b1000000000000001110 3
12
11
1H
1I
b1000000000000001110 J
b1000000000000001110 g
b100 G
b100 e
b100 o
1h
1i
1q
b0 p
#175
1!
1B
#180
0"
0!
0B
0E
#185
1!
1B
#190
1"
0!
0B
1E
b101011 9"
b1011111100101111000101000110010 [!
b11101100001101000110010011100100 ^!
b110101 ]!
0\!
b1011111100101111000101000110010 _!
b0 0
b0 3
02
01
b101011 8"
0H
0I
b0 J
b0 g
b0 G
b0 e
b0 o
0h
0i
0q
b11111 p
b1000000000000001110 s
b1000000000000001110 k
b1000000000000001110 X
#195
1!
1B
#200
0"
0!
0B
0E
#205
1!
1B
#210
1"
0!
0B
1E
b101 0
b1010000000000001111 3
12
11
1H
1I
b1010000000000001111 J
b1010000000000001111 g
b101 G
b101 e
b101 o
1h
1i
b0 p
#215
1!
1B
#220
0"
0!
0B
0E
#225
1!
1B
#230
1"
0!
0B
1E
b101100 9"
b11000110000001110000000001101101 [!
b10110001101111101111010001111101 ^!
b110110 ]!
1\!
b11000110000001110000000001101101 _!
b0 0
b0 3
02
01
b101100 8"
0H
0I
b0 J
b0 g
b0 G
b0 e
b0 o
0h
0i
b11111 p
#235
1!
1B
#240
0"
0!
0B
0E
#245
1!
1B
#250
1"
0!
0B
1E
b110 0
b1100000000000010000 3
12
11
1H
1I
b1100000000000010000 J
b1100000000000010000 g
b110 G
b110 e
b110 o
1h
1i
b0 p
#255
1!
1B
#260
0"
0!
0B
0E
#265
1!
1B
#270
1"
0!
0B
1E
b101101 9"
b10110000111001110000110001000110 [!
b11011000101100100001010010010011 ^!
b110111 ]!
1\!
b10110000111001110000110001000110 _!
b0 0
b0 3
02
01
b101101 8"
0H
0I
b0 J
b0 g
b0 G
b0 e
b0 o
0h
0i
b11111 p
#275
1!
1B
#280
0"
0!
0B
0E
#285
1!
1B
#290
1"
0!
0B
1E
b111 0
b1110000000000010001 3
12
11
1H
1I
b1110000000000010001 J
b1110000000000010001 g
b111 G
b111 e
b111 o
1h
1i
b0 p
#295
1!
1B
#300
0"
0!
0B
0E
#305
1!
1B
#310
1"
0!
0B
1E
b101110 9"
b10101001000100101011010011001101 [!
b1010001000010101110100110011010 ^!
b111000 ]!
0\!
b10101001000100101011010011001101 _!
b0 0
b0 3
02
01
b101110 8"
0H
0I
b0 J
b0 g
b0 G
b0 e
b0 o
0h
0i
b11111 p
#315
1!
1B
#320
0"
0!
0B
0E
#325
1!
1B
#330
1"
0!
0B
1E
b1000 0
b10000000000000010010 3
12
11
1H
1I
b10000000000000010010 J
b10000000000000010010 g
b1000 G
b1000 e
b1000 o
1h
1i
1q
b1 p
#335
1!
1B
#340
0"
0!
0B
0E
#345
1!
1B
#350
1"
0!
0B
1E
b101111 9"
b11001111111100101011100011100110 [!
b111000000001100000100101110100 ^!
b111001 ]!
0\!
b11001111111100101011100011100110 _!
b0 0
b0 3
02
01
b101111 8"
0H
0I
b0 J
b0 g
b0 G
b0 e
b0 o
0h
0i
0q
b11111 p
#355
1!
1B
#360
0"
0!
0B
0E
#365
1!
1B
#370
1"
0!
0B
1E
b1001 0
b10010000000000010011 3
12
11
1H
1I
b10010000000000010011 J
b10010000000000010011 g
b1001 G
b1001 e
b1001 o
1h
1i
b1 p
#375
1!
1B
#380
0"
0!
0B
0E
#385
1!
1B
#390
1"
0!
0B
1E
b110000 9"
b11100100000001110101000001001101 [!
b11010001011011101111010001011111 ^!
b110000 ]!
1\!
b11100100000001110101000001001101 _!
b0 0
b0 3
02
01
b110000 8"
0H
0I
b0 J
b0 g
b0 G
b0 e
b0 o
0h
0i
b11111 p
#395
1!
1B
#400
0"
0!
0B
0E
#405
1!
1B
#410
1"
0!
0B
1E
b1010 0
b10100000000000010100 3
12
11
1H
1I
b10100000000000010100 J
b10100000000000010100 g
b1010 G
b1010 e
b1010 o
1h
1i
b1 p
#415
1!
1B
#420
0"
0!
0B
0E
#425
1!
1B
#430
1"
0!
0B
1E
b110001 9"
b10010010111001110101110001100110 [!
b10111000011000100001010010110001 ^!
b110001 ]!
1\!
b10010010111001110101110001100110 _!
b0 0
b0 3
02
01
b110001 8"
0H
0I
b0 J
b0 g
b0 G
b0 e
b0 o
0h
0i
b11111 p
#435
1!
1B
#440
0"
0!
0B
0E
#445
1!
1B
#450
1"
0!
0B
1E
b1011 0
b10110000000000010101 3
12
11
1H
1I
b10110000000000010101 J
b10110000000000010101 g
b1011 G
b1011 e
b1011 o
1h
1i
b1 p
#455
1!
1B
#460
0"
0!
0B
0E
#465
1!
1B
#470
1"
0!
0B
1E
b110010 9"
b11011011101101101011000111001 [!
b11100101111010001000010000101000 ^!
b110010 ]!
0\!
b11011011101101101011000111001 _!
b0 0
b0 3
02
01
b110010 8"
0H
0I
b0 J
b0 g
b0 G
b0 e
b0 o
0h
0i
b11111 p
#475
1!
1B
#480
0"
0!
0B
0E
#485
1!
1B
#490
1"
0!
0B
1E
b1100 0
b11000000000000010110 3
12
11
1H
1I
b11000000000000010110 J
b11000000000000010110 g
b1100 G
b1100 e
b1100 o
1h
1i
1q
b10 p
#495
1!
1B
#500
0"
0!
0B
0E
#505
1!
1B
#510
1"
0!
0B
1E
b110011 9"
b1111101100101101101101010010010 [!
b10001100111001000110010011000110 ^!
b110011 ]!
0\!
b1111101100101101101101010010010 _!
b0 0
b0 3
02
01
b110011 8"
0H
0I
b0 J
b0 g
b0 G
b0 e
b0 o
0h
0i
0q
b11111 p
#515
1!
1B
#520
0"
0!
0B
0E
#525
1!
1B
#530
1"
0!
0B
1E
b1101 0
b11010000000000010111 3
12
11
1H
1I
b11010000000000010111 J
b11010000000000010111 g
b1101 G
b1101 e
b1101 o
1h
1i
b10 p
#535
1!
1B
#540
0"
0!
0B
0E
#545
1!
1B
#550
1"
0!
0B
1E
b110100 9"
b10000100101110010111000111010101 [!
b1001001010011010100001010111111 ^!
b110100 ]!
1\!
b10000100101110010111000111010101 _!
b0 0
b0 3
02
01
b110100 8"
0H
0I
b0 J
b0 g
b0 G
b0 e
b0 o
0h
0i
b11111 p
#555
1!
1B
#560
0"
0!
0B
0E
#565
1!
1B
#570
1"
0!
0B
1E
b1110 0
b11100000000000011000 3
12
11
1H
1I
b11100000000000011000 J
b11100000000000011000 g
b1110 G
b1110 e
b1110 o
1h
1i
b10 p
#575
1!
1B
#580
0"
0!
0B
0E
#585
1!
1B
#590
1"
0!
0B
1E
b110101 9"
b11110010010110010111110111111110 [!
b100000010000011010001001010001 ^!
b110101 ]!
1\!
b11110010010110010111110111111110 _!
b0 0
b0 3
02
01
b110101 8"
0H
0I
b0 J
b0 g
b0 G
b0 e
b0 o
0h
0i
b11111 p
#595
1!
1B
#600
0"
0!
0B
0E
#605
1!
1B
#610
1"
0!
0B
1E
b1111 0
b11110000000000011001 3
12
11
1H
1I
b11110000000000011001 J
b11110000000000011001 g
b1111 G
b1111 e
b1111 o
1h
1i
b10 p
#615
1!
1B
#620
0"
0!
0B
0E
#625
1!
1B
#630
1"
0!
0B
1E
b110110 9"
b1111011110010001111001110100001 [!
b1111101110010110011001011001000 ^!
b110110 ]!
0\!
b1111011110010001111001110100001 _!
b0 0
b0 3
02
01
b110110 8"
0H
0I
b0 J
b0 g
b0 G
b0 e
b0 o
0h
0i
b11111 p
#635
1!
1B
#640
0"
0!
0B
0E
#645
1!
1B
#650
1"
0!
0B
1E
b10000 0
b100000000000000011010 3
12
11
1H
1I
b100000000000000011010 J
b100000000000000011010 g
b10000 G
b10000 e
b10000 o
1h
1i
1q
b11 p
#655
1!
1B
#660
0"
0!
0B
0E
#665
1!
1B
#670
1"
0!
0B
1E
b110111 9"
b11101001010001111100000001010 [!
b10100110001111101001000100110 ^!
b110111 ]!
0\!
b11101001010001111100000001010 _!
b0 0
b0 3
02
01
b110111 8"
0H
0I
b0 J
b0 g
b0 G
b0 e
b0 o
0h
0i
0q
b11111 p
#675
1!
1B
#680
0"
0!
0B
0E
#685
1!
1B
#690
1"
0!
0B
1E
b10001 0
b100010000000000011011 3
12
11
1H
1I
b100010000000000011011 J
b100010000000000011011 g
b10001 G
b10001 e
b10001 o
1h
1i
b11 p
#695
1!
1B
#700
0"
0!
0B
0E
#705
1!
1B
#710
1"
0!
0B
1E
b111000 9"
b10100110011000011111110000001 [!
b10011101011111110010111100101111 ^!
b111000 ]!
1\!
b10100110011000011111110000001 _!
b0 0
b0 3
02
01
b111000 8"
0H
0I
b0 J
b0 g
b0 G
b0 e
b0 o
0h
0i
b11111 p
#715
1!
1B
#720
0"
0!
0B
0E
#725
1!
1B
#730
1"
0!
0B
1E
b10010 0
b100100000000000011100 3
12
11
1H
1I
b100100000000000011100 J
b100100000000000011100 g
b10010 G
b10010 e
b10010 o
1h
1i
b11 p
#735
1!
1B
#740
0"
0!
0B
0E
#745
1!
1B
#750
1"
0!
0B
1E
b111001 9"
b10000010001011000100101100101010 [!
b11110100011100111100111111000001 ^!
b111001 ]!
1\!
b10000010001011000100101100101010 _!
b0 0
b0 3
02
01
b111001 8"
0H
0I
b0 J
b0 g
b0 G
b0 e
b0 o
0h
0i
b11111 p
#755
1!
1B
#760
0"
0!
0B
0E
#765
1!
1B
#770
1"
0!
0B
1E
b10011 0
b100110000000000011101 3
12
11
1H
1I
b100110000000000011101 J
b100110000000000011101 g
b10011 G
b10011 e
b10011 o
1h
1i
b11 p
#775
1!
1B
#780
0"
0!
0B
0E
#785
1!
1B
#790
1"
0!
0B
1E
b111010 9"
b10111000101110110001101100001100 [!
b10010101001000100000010001011 ^!
b110000 ]!
1\!
b10111000101110110001101100001100 _!
b0 0
b0 3
02
01
b111010 8"
0H
0I
b0 J
b0 g
b0 G
b0 e
b0 o
0h
0i
b11111 p
#795
1!
1B
#800
0"
0!
0B
0E
#805
1!
1B
#810
1"
0!
0B
1E
b10100 0
b101000000000000011110 3
12
11
1H
1I
b101000000000000011110 J
b101000000000000011110 g
b10100 G
b10100 e
b10100 o
1h
1i
1q
b100 p
#815
1!
1B
#820
0"
0!
0B
0E
#825
1!
1B
#830
1"
0!
0B
1E
b111011 9"
b11011110010110110001011010100011 [!
b1111011101010001010000001100101 ^!
b110001 ]!
1\!
b11011110010110110001011010100011 _!
b0 0
b0 3
02
01
b111011 8"
0H
0I
b0 J
b0 g
b0 G
b0 e
b0 o
0h
0i
0q
b11111 p
#835
1!
1B
#840
0"
0!
0B
0E
#845
1!
1B
#850
1"
0!
0B
1E
b10101 0
b101010000000000011111 3
12
11
1H
1I
b101010000000000011111 J
b101010000000000011111 g
b10101 G
b10101 e
b10101 o
1h
1i
b100 p
#855
1!
1B
#860
0"
0!
0B
0E
#865
1!
1B
#870
1"
0!
0B
1E
b111100 9"
b1000111110010111001110011111000 [!
b100110001000100011000011111100 ^!
b110010 ]!
0\!
b1000111110010111001110011111000 _!
b0 0
b0 3
02
01
b111100 8"
0H
0I
b0 J
b0 g
b0 G
b0 e
b0 o
0h
0i
b11111 p
#875
1!
1B
#880
0"
0!
0B
0E
#885
1!
1B
#890
1"
0!
0B
1E
b10110 0
b101100000000000100000 3
12
11
1H
1I
b101100000000000100000 J
b101100000000000100000 g
b10110 G
b10110 e
b10110 o
1h
1i
b100 p
#895
1!
1B
#900
0"
0!
0B
0E
#905
1!
1B
#910
1"
0!
0B
1E
b111101 9"
b110001001010111001000011001111 [!
b1001111001011101101000000010010 ^!
b110011 ]!
0\!
b110001001010111001000011001111 _!
b0 0
b0 3
02
01
b111101 8"
0H
0I
b0 J
b0 g
b0 G
b0 e
b0 o
0h
0i
b11111 p
#915
1!
1B
#920
0"
0!
0B
0E
#925
1!
1B
#930
1"
0!
0B
1E
b10111 0
b101110000000000100001 3
12
11
1H
1I
b101110000000000100001 J
b101110000000000100001 g
b10111 G
b10111 e
b10111 o
1h
1i
b100 p
#935
1!
1B
#940
0"
0!
0B
0E
#945
1!
1B
#950
1"
0!
0B
1E
b111110 9"
b11011000000001010011011110010100 [!
b10001010100001111111011001101011 ^!
b110100 ]!
1\!
b11011000000001010011011110010100 _!
b0 0
b0 3
02
01
b111110 8"
0H
0I
b0 J
b0 g
b0 G
b0 e
b0 o
0h
0i
b11111 p
#955
1!
1B
#960
0"
0!
0B
0E
#965
1!
1B
